Introduction to dbplyr • dbplyr
…
If you’re familiar with SQL, this probably isn’t exactly what you’d write by hand, but it does the job. You can learn more about the SQL translation in vignette("translation-verb") and vignette("translation-function").

Typically, you’ll iterate a few times before you figure out what data you need from the database. Once you’ve figured it out, use collect() to pull all the data down into a local tibble:

tailnum_delay <- tailnum_delay_db %>% collect()
#> Warning: ORDER BY is ignored in subqueries without LIMIT
#> ℹ Do you need to move arrange() later in the pipeline or use window_order() instead?
tailnum_delay
#> # A tibble: 1,201 x 3
#>   tailnum delay     n
#>   <chr>   <dbl> <int>
#> 1 <NA>    NA     2512
#> 2 N0EGMQ   9.98   371
#> 3 N10156  12.7    153
#> 4 N10575  20.7    289
#> 5 N11106  14.9    129
#> 6 N11107  15.0    148
#> # … with 1,195 more rows
…
