Introduction to dbplyr • dbplyr
…
To pull down all the results use collect(), which returns a tbl_df():

collect(c4)
#> # A tibble: 842 × 8
#>    year month   day carrier dep_delay air_time distance    speed
#>   <int> <int> <int>   <chr>     <dbl>    <dbl>    <dbl>    <dbl>
#> 1  2013     1     1      9E         0      189     1029 326.6667
#> 2  2013     1     1      9E        -9       57      228 240.0000
#> 3  2013     1     1      9E        -3       68      301 265.5882
#> 4  2013     1     1      9E        -6       57      209 220.0000
#> # ... with 838 more rows
…
